NOTA 3,74


==================================
1.
4
- El requirements.txt tiene muchaas más librerias de las necesarias
Además, dejó tres archivos en .txt (no sé cual de todos es el correcto)
==================================
2.

----------------------------------
p1
3.5
- No realizó el punto de herencia, tiene una clase de herencia
sin embargo no corresde a lo pedido.


----------------------------------
p2

4.2

-NO funciona el código para ciertos valos. ex: R=0 (debe hace control de errores)
- Debe comentar cada parámetro que ingresa a la funcion
- No es claroq ue se debe in


==================================
3.

----------------------------------
p1
5.0
- Buen Trabajo 
----------------------------------
p2
3.0
- Verificar las solucion númerica, los dos plots son iguales

==================================
4.
4.0
- No se guradó en el formato establecido en el parcial Parcial/parcial1/SuNumeroDeCedula