NOTA 4,84

==================================
1.
5.0
BUEN TRABAJO!!
==================================
2.

----------------------------------
p1
4.7
-BUEN TRABAJO, SE DEBE COMENTAR DE FORMA CORRECTA LA CLASE(SIN COMENTARIOS)

----------------------------------
p2

4.5

- Para algunos atributos no funciona l=0(control de errores)

  ==================================
3.

----------------------------------
p1
5
- BUEN TRABAJO!!
----------------------------------
p2
5
- BUEN TRABAJO!!

==================================
4.
5
- BUEN TRABAJO!!