NOTA 4,35


==================================
1.
4
- El requirements.txt tiene muchaas más librerias de las necesarias
==================================
2.

----------------------------------
p1
4
- Revisar el código, no tiene sentido físico para
 los valores que se ejecutó(ver execution_tirop.py)

----------------------------------
p2

4.5

-NO se guradan los plots al momento de cambiar as variables


==================================
3.

----------------------------------
p1
4.0
- no se guradan los plots 
----------------------------------
p2
4.5
- No guarda los plots
- El resultado es correcto, sin embargo no cumple con los criterios de Poo
ex: Defines metodos en el if __name__ == "__main__":

==================================
4.
5
- BUEN TRABAJO!!