NOTA 3,18


==================================
1.
5
- Buen Trabajo!!
==================================
2.

----------------------------------
p1
4.0
- No realizó el punto de herencia.


----------------------------------
p2

4.5

-NO funciona el código para ciertos valos. ex: l=0 (debe hace control de errores)
-Qué se graficó en el plot? (No tiene nombre en los ejes)



==================================
3.

----------------------------------
p1
4.8
- Comentar el código, no es legible
----------------------------------
p2
0
- No tiene punto

==================================
4.
5.0
- No se guradó en el formato establecido en el parcial Parcial/parcial1/SuNumeroDeCedula